{
    "id": "10",
    "title": "Maj STORE",
    "date": "2023/02/07",
    "message": "Si ce n'est pas déjà le cas, contactez moi pour avoir votre pass beta test Android\nLes changelogs/majs seront sur la page du store dorénavant"
}